G04*
G04 #@! TF.GenerationSoftware,Altium Limited,Altium Designer,20.1.8 (145)*
G04*
G04 Layer_Physical_Order=2*
G04 Layer_Color=16711680*
%FSLAX44Y44*%
%MOMM*%
G71*
G04*
G04 #@! TF.SameCoordinates,9FD9B789-4E09-427A-807F-5F839BDCDFAB*
G04*
G04*
G04 #@! TF.FilePolarity,Positive*
G04*
G01*
G75*
%ADD11C,0.2500*%
%ADD52R,4.4000X2.0000*%
%ADD57R,2.0000X4.4000*%
%ADD69C,0.6000*%
%ADD71C,1.0000*%
%ADD72C,0.3000*%
%ADD75C,0.4000*%
%ADD78C,1.8000*%
%ADD79C,4.2000*%
%ADD80C,0.6000*%
%ADD81C,0.7000*%
%ADD82C,0.2550*%
G36*
X441605Y376204D02*
X440852Y375802D01*
X437197Y372803D01*
X434198Y369148D01*
X431969Y364979D01*
X430597Y360455D01*
X430134Y355750D01*
X430597Y351045D01*
X431969Y346521D01*
X434198Y342352D01*
X437197Y338697D01*
X440852Y335698D01*
X445021Y333470D01*
X449545Y332097D01*
X454250Y331634D01*
X458955Y332097D01*
X463479Y333470D01*
X467648Y335698D01*
X471302Y338697D01*
X474302Y342352D01*
X474704Y343105D01*
X475936Y342797D01*
Y251928D01*
X474704Y251620D01*
X474302Y252373D01*
X471303Y256027D01*
X467648Y259026D01*
X463479Y261255D01*
X458955Y262627D01*
X454250Y263091D01*
X449545Y262627D01*
X445021Y261255D01*
X440852Y259026D01*
X437197Y256027D01*
X434198Y252373D01*
X431970Y248203D01*
X430597Y243679D01*
X430134Y238975D01*
X430597Y234270D01*
X431970Y229746D01*
X434198Y225576D01*
X437197Y221922D01*
X440852Y218923D01*
X445021Y216694D01*
X449545Y215322D01*
X454250Y214858D01*
X458955Y215322D01*
X463479Y216694D01*
X467648Y218923D01*
X471303Y221922D01*
X474302Y225576D01*
X474704Y226330D01*
X475936Y226021D01*
Y179061D01*
X475936Y179061D01*
X475936Y140733D01*
X475936Y140733D01*
Y120561D01*
X475936Y120561D01*
X475936Y82233D01*
X475936Y82233D01*
Y37954D01*
X474704Y37645D01*
X474302Y38398D01*
X471303Y42053D01*
X467648Y45052D01*
X463479Y47280D01*
X458955Y48653D01*
X454250Y49116D01*
X449545Y48653D01*
X445021Y47280D01*
X440852Y45052D01*
X437197Y42053D01*
X434198Y38398D01*
X431970Y34229D01*
X430597Y29705D01*
X430134Y25000D01*
X430597Y20295D01*
X431970Y15771D01*
X434198Y11602D01*
X437197Y7947D01*
X440852Y4948D01*
X441605Y4546D01*
X441296Y3314D01*
X218765D01*
X180436Y3314D01*
X180436Y3314D01*
X37954D01*
X37645Y4546D01*
X38398Y4948D01*
X42053Y7947D01*
X45052Y11602D01*
X47280Y15771D01*
X48653Y20295D01*
X49116Y25000D01*
X48653Y29705D01*
X47280Y34229D01*
X45052Y38398D01*
X42053Y42053D01*
X38398Y45052D01*
X34229Y47280D01*
X29705Y48653D01*
X25000Y49116D01*
X20295Y48653D01*
X15771Y47280D01*
X11602Y45052D01*
X7947Y42053D01*
X4948Y38398D01*
X4546Y37645D01*
X3314Y37954D01*
Y90750D01*
X3314D01*
X3314Y114750D01*
D01*
Y148750D01*
X3314D01*
X3314Y172750D01*
D01*
Y226021D01*
X4546Y226330D01*
X4948Y225576D01*
X7947Y221922D01*
X11602Y218923D01*
X15771Y216694D01*
X20295Y215322D01*
X25000Y214858D01*
X29705Y215322D01*
X34229Y216694D01*
X38398Y218923D01*
X42053Y221922D01*
X45052Y225576D01*
X47280Y229746D01*
X48653Y234270D01*
X49116Y238975D01*
X48653Y243679D01*
X47280Y248203D01*
X45052Y252373D01*
X42053Y256027D01*
X38398Y259026D01*
X34229Y261255D01*
X29705Y262627D01*
X25000Y263091D01*
X20295Y262627D01*
X15771Y261255D01*
X11602Y259026D01*
X7947Y256027D01*
X4948Y252373D01*
X4546Y251620D01*
X3314Y251928D01*
Y342797D01*
X4546Y343105D01*
X4948Y342352D01*
X7947Y338697D01*
X11602Y335698D01*
X15771Y333470D01*
X20295Y332097D01*
X25000Y331634D01*
X29705Y332097D01*
X34229Y333470D01*
X38398Y335698D01*
X42053Y338697D01*
X45052Y342352D01*
X47280Y346521D01*
X48653Y351045D01*
X49116Y355750D01*
X48653Y360455D01*
X47280Y364979D01*
X45052Y369148D01*
X42053Y372803D01*
X38398Y375802D01*
X37645Y376204D01*
X37954Y377436D01*
X441296D01*
X441605Y376204D01*
D02*
G37*
%LPC*%
G36*
X377365Y374250D02*
X340115D01*
X340115Y364250D01*
X377365D01*
Y374250D01*
D02*
G37*
G36*
X322885Y374250D02*
X285635D01*
Y364250D01*
X322885D01*
X322885Y374250D01*
D02*
G37*
G36*
X418240Y374250D02*
X380990D01*
X380990Y364250D01*
X418240D01*
Y374250D01*
D02*
G37*
G36*
X408250Y360635D02*
Y323385D01*
X418250D01*
Y360635D01*
X408250Y360635D01*
D02*
G37*
G36*
X248050Y321104D02*
X247469Y321027D01*
X223231D01*
X222650Y321104D01*
X222069Y321027D01*
X197831D01*
X197250Y321104D01*
X196669Y321027D01*
X172431D01*
X171850Y321104D01*
X171269Y321027D01*
X147031D01*
X146450Y321104D01*
X145869Y321027D01*
X121631D01*
X121050Y321104D01*
X120469Y321027D01*
X96231D01*
X95650Y321104D01*
X95069Y321027D01*
X75261D01*
X75263Y320886D01*
X75458Y318363D01*
X75575Y317678D01*
X75718Y317072D01*
X75887Y316544D01*
X76082Y316093D01*
X76303Y315721D01*
X76550Y315427D01*
X63950D01*
X64197Y315721D01*
X64418Y316093D01*
X64613Y316544D01*
X64782Y317072D01*
X64925Y317678D01*
X65042Y318363D01*
X65198Y319967D01*
X65237Y320886D01*
X65239Y321027D01*
X60700D01*
X58223Y318550D01*
Y314011D01*
X58364Y314013D01*
X60887Y314208D01*
X61572Y314325D01*
X62178Y314468D01*
X62706Y314637D01*
X63157Y314832D01*
X63529Y315053D01*
X63823Y315300D01*
Y302700D01*
X63529Y302947D01*
X63157Y303168D01*
X62706Y303363D01*
X62178Y303532D01*
X61572Y303675D01*
X60887Y303792D01*
X59283Y303948D01*
X58364Y303987D01*
X58223Y303989D01*
Y284081D01*
X58147Y283500D01*
X58559Y280367D01*
X59768Y277448D01*
X61691Y274942D01*
X64198Y273018D01*
X67117Y271809D01*
X69669Y271473D01*
X70250Y270892D01*
X104038D01*
X104247Y269842D01*
X105186Y268436D01*
X148845Y224776D01*
X148918Y224668D01*
X150332Y223723D01*
X152000Y223391D01*
X246758D01*
X247563Y222409D01*
X247382Y221500D01*
X247441Y221204D01*
Y213046D01*
X247382Y212750D01*
X247848Y210409D01*
X249174Y208424D01*
X251159Y207098D01*
X253500Y206632D01*
X253796Y206691D01*
X261954D01*
X262250Y206632D01*
X264591Y207098D01*
X266576Y208424D01*
X267902Y210409D01*
X268050Y211155D01*
X386139D01*
X386250Y211133D01*
X388591Y211598D01*
X390576Y212924D01*
X391902Y214909D01*
X392368Y217250D01*
X392365Y217261D01*
X392368Y217272D01*
X391902Y219613D01*
X390576Y221598D01*
X388591Y222924D01*
X386250Y223390D01*
X358463D01*
X357977Y224563D01*
X369308Y235894D01*
X371591Y236348D01*
X373576Y237674D01*
X374902Y239659D01*
X375368Y242000D01*
X374902Y244341D01*
X373576Y246326D01*
X371591Y247652D01*
X369250Y248118D01*
Y248556D01*
X369249Y248555D01*
X338249D01*
Y241999D01*
X338249Y241999D01*
X338884Y240992D01*
X338952Y240827D01*
X335781Y237655D01*
X315095D01*
X309250Y243500D01*
Y258500D01*
Y268500D01*
X272000D01*
Y260849D01*
X269651Y258500D01*
X265250D01*
X260082Y263668D01*
Y308453D01*
X260154Y309000D01*
X259741Y312133D01*
X258532Y315052D01*
X256609Y317558D01*
X254102Y319482D01*
X251183Y320691D01*
X248050Y321104D01*
D02*
G37*
G36*
X282010Y295750D02*
X272010D01*
Y272115D01*
X282010Y272115D01*
Y295750D01*
D02*
G37*
G36*
X355020Y268500D02*
X331375D01*
Y258500D01*
X355020D01*
X355020Y268500D01*
D02*
G37*
G36*
X334000Y332868D02*
X331659Y332402D01*
X329674Y331076D01*
X328348Y329091D01*
X327882Y326750D01*
X328348Y324409D01*
X329674Y322424D01*
X331659Y321098D01*
X334000Y320632D01*
X336341Y321098D01*
X337152Y321640D01*
X337374Y321652D01*
X381148D01*
X387652Y315149D01*
Y287920D01*
X387098Y287091D01*
X386833Y285760D01*
X386194Y284750D01*
X386194Y284749D01*
X386198Y284746D01*
X386198Y283181D01*
Y274753D01*
X386229D01*
X386201Y274745D01*
X386198Y274753D01*
Y272736D01*
X386198Y272736D01*
X386198Y272736D01*
Y271434D01*
X385446Y270446D01*
X383500Y268500D01*
X358645D01*
Y258500D01*
X395895D01*
X395895Y268500D01*
X395895Y268500D01*
X395895D01*
X396050Y269739D01*
X397079Y270427D01*
X398405Y272411D01*
X398871Y274753D01*
X398405Y277094D01*
X397218Y278871D01*
X397523Y279991D01*
X398619Y280296D01*
X400406Y279102D01*
X402747Y278636D01*
X405089Y279102D01*
X406730Y280199D01*
X408000Y279703D01*
Y278250D01*
X408250Y278000D01*
Y258484D01*
X418250D01*
Y278885D01*
Y282510D01*
Y319760D01*
X408250Y319760D01*
Y293500D01*
X406060Y291310D01*
X400048D01*
X398000Y293358D01*
Y295250D01*
X398000Y295250D01*
X397848Y295270D01*
Y317260D01*
X397460Y319211D01*
X396355Y320865D01*
X386865Y330355D01*
X385211Y331460D01*
X383260Y331848D01*
X337170D01*
X336341Y332402D01*
X334000Y332868D01*
D02*
G37*
%LPD*%
G36*
X375375Y372250D02*
X375375Y366250D01*
X342125Y366250D01*
X342125Y372250D01*
X375375Y372250D01*
D02*
G37*
G36*
X320875Y366250D02*
X287625Y366250D01*
X287625Y372250D01*
X320875Y372250D01*
X320875Y366250D01*
D02*
G37*
G36*
X416250Y372250D02*
Y366250D01*
X383000D01*
X383000Y372250D01*
X416250Y372250D01*
D02*
G37*
G36*
Y325375D02*
X410250Y325375D01*
Y358625D01*
X416250D01*
Y325375D01*
D02*
G37*
G36*
X231657Y307546D02*
X231800Y305117D01*
X231936Y304052D01*
X232115Y303088D01*
X232337Y302223D01*
X232602Y301458D01*
X232910Y300793D01*
X233261Y300228D01*
X233654Y299763D01*
X231887Y297995D01*
X231422Y298389D01*
X230857Y298740D01*
X230192Y299048D01*
X229427Y299313D01*
X228562Y299535D01*
X227598Y299714D01*
X226533Y299850D01*
X224104Y299993D01*
X222740Y300000D01*
X231650Y308910D01*
X231657Y307546D01*
D02*
G37*
G36*
X206257D02*
X206400Y305117D01*
X206536Y304052D01*
X206716Y303088D01*
X206937Y302223D01*
X207202Y301458D01*
X207510Y300793D01*
X207861Y300228D01*
X208255Y299763D01*
X206487Y297995D01*
X206022Y298389D01*
X205457Y298740D01*
X204792Y299048D01*
X204027Y299313D01*
X203162Y299535D01*
X202198Y299714D01*
X201133Y299850D01*
X198704Y299993D01*
X197340Y300000D01*
X206250Y308910D01*
X206257Y307546D01*
D02*
G37*
G36*
X180857D02*
X181000Y305117D01*
X181136Y304052D01*
X181315Y303088D01*
X181537Y302223D01*
X181802Y301458D01*
X182110Y300793D01*
X182461Y300228D01*
X182854Y299763D01*
X181087Y297995D01*
X180622Y298389D01*
X180057Y298740D01*
X179392Y299048D01*
X178627Y299313D01*
X177762Y299535D01*
X176798Y299714D01*
X175733Y299850D01*
X173304Y299993D01*
X171940Y300000D01*
X180850Y308910D01*
X180857Y307546D01*
D02*
G37*
G36*
X155457D02*
X155600Y305117D01*
X155736Y304052D01*
X155915Y303088D01*
X156137Y302223D01*
X156402Y301458D01*
X156710Y300793D01*
X157061Y300228D01*
X157455Y299763D01*
X155687Y297995D01*
X155222Y298389D01*
X154657Y298740D01*
X153992Y299048D01*
X153227Y299313D01*
X152362Y299535D01*
X151398Y299714D01*
X150333Y299850D01*
X147904Y299993D01*
X146540Y300000D01*
X155450Y308910D01*
X155457Y307546D01*
D02*
G37*
G36*
X130057D02*
X130200Y305117D01*
X130336Y304052D01*
X130515Y303088D01*
X130737Y302223D01*
X131002Y301458D01*
X131310Y300793D01*
X131661Y300228D01*
X132055Y299763D01*
X130287Y297995D01*
X129822Y298389D01*
X129257Y298740D01*
X128592Y299048D01*
X127827Y299313D01*
X126962Y299535D01*
X125998Y299714D01*
X124933Y299850D01*
X122504Y299993D01*
X121140Y300000D01*
X130050Y308910D01*
X130057Y307546D01*
D02*
G37*
G36*
X104657D02*
X104800Y305117D01*
X104936Y304052D01*
X105115Y303088D01*
X105337Y302223D01*
X105602Y301458D01*
X105910Y300793D01*
X106261Y300228D01*
X106655Y299763D01*
X104887Y297995D01*
X104422Y298389D01*
X103857Y298740D01*
X103192Y299048D01*
X102427Y299313D01*
X101562Y299535D01*
X100598Y299714D01*
X99533Y299850D01*
X97104Y299993D01*
X95740Y300000D01*
X104650Y308910D01*
X104657Y307546D01*
D02*
G37*
G36*
X307260Y266500D02*
X307260Y260500D01*
X274010Y260500D01*
X274010Y266500D01*
X307260Y266500D01*
D02*
G37*
G36*
X232186Y269936D02*
X243500Y258622D01*
Y254500D01*
X242647Y253583D01*
X235395D01*
X219259Y269719D01*
X219745Y270892D01*
X231547D01*
X232186Y269936D01*
D02*
G37*
G36*
X206786D02*
X228215Y248507D01*
X227729Y247333D01*
X216245D01*
X193859Y269719D01*
X194345Y270892D01*
X206147D01*
X206786Y269936D01*
D02*
G37*
G36*
X285153Y246627D02*
X285375Y246441D01*
X285599Y246277D01*
X285825Y246135D01*
X286053Y246015D01*
X286283Y245918D01*
X286514Y245842D01*
X286748Y245789D01*
X286983Y245759D01*
X287220Y245750D01*
X284250Y242780D01*
X284241Y243017D01*
X284211Y243252D01*
X284158Y243486D01*
X284082Y243717D01*
X283985Y243947D01*
X283865Y244175D01*
X283723Y244401D01*
X283559Y244625D01*
X283373Y244847D01*
X283165Y245067D01*
X284933Y246835D01*
X285153Y246627D01*
D02*
G37*
G36*
X300653Y246377D02*
X300875Y246191D01*
X301099Y246027D01*
X301325Y245885D01*
X301553Y245765D01*
X301783Y245668D01*
X302014Y245592D01*
X302248Y245539D01*
X302483Y245509D01*
X302720Y245500D01*
X299750Y242530D01*
X299741Y242767D01*
X299711Y243002D01*
X299657Y243236D01*
X299582Y243467D01*
X299485Y243697D01*
X299365Y243925D01*
X299223Y244151D01*
X299059Y244375D01*
X298873Y244597D01*
X298665Y244817D01*
X300433Y246585D01*
X300653Y246377D01*
D02*
G37*
G36*
X181386Y269936D02*
X209015Y242307D01*
X208529Y241133D01*
X197045D01*
X182099Y256079D01*
X182099Y256080D01*
X168459Y269719D01*
X168945Y270892D01*
X180747D01*
X181386Y269936D01*
D02*
G37*
G36*
X269608Y240900D02*
X269434Y241061D01*
X269246Y241206D01*
X269043Y241334D01*
X268826Y241444D01*
X268595Y241537D01*
X268349Y241614D01*
X268089Y241674D01*
X267815Y241716D01*
X267526Y241742D01*
X267223Y241750D01*
Y244250D01*
X267526Y244258D01*
X267815Y244284D01*
X268089Y244326D01*
X268349Y244386D01*
X268595Y244463D01*
X268826Y244556D01*
X269043Y244667D01*
X269246Y244794D01*
X269434Y244939D01*
X269608Y245100D01*
Y240900D01*
D02*
G37*
G36*
X155986Y269936D02*
X175970Y249951D01*
X188140Y237782D01*
X187654Y236608D01*
X176170D01*
X143059Y269719D01*
X143545Y270892D01*
X155347D01*
X155986Y269936D01*
D02*
G37*
G36*
X130586D02*
X167240Y233282D01*
X166754Y232109D01*
X153769D01*
X116159Y269719D01*
X116645Y270892D01*
X129947D01*
X130586Y269936D01*
D02*
G37*
G36*
X265250Y221750D02*
Y212750D01*
X262250Y209750D01*
X253500D01*
X250500Y212750D01*
Y221500D01*
X253500Y224500D01*
X262500D01*
X265250Y221750D01*
D02*
G37*
G36*
X280010Y274125D02*
X274010D01*
X274010Y293685D01*
X280010Y293685D01*
X280010Y274125D01*
D02*
G37*
G36*
X353010Y266500D02*
X353010Y260500D01*
X333450Y260500D01*
X333450Y266500D01*
X353010Y266500D01*
D02*
G37*
G36*
X336179Y328831D02*
X336250Y328814D01*
X336354Y328799D01*
X336665Y328775D01*
X337694Y328751D01*
X338036Y328750D01*
Y324750D01*
X336142Y324650D01*
Y328850D01*
X336179Y328831D01*
D02*
G37*
G36*
X394850Y286892D02*
X390650D01*
X390669Y286929D01*
X390686Y286999D01*
X390701Y287104D01*
X390725Y287415D01*
X390749Y288444D01*
X390750Y288786D01*
X394750D01*
X394850Y286892D01*
D02*
G37*
G36*
X416250Y284500D02*
X410250Y284500D01*
Y317750D01*
X416250D01*
Y284500D01*
D02*
G37*
G36*
X416250Y260500D02*
X410250D01*
X410250Y276875D01*
X416250Y276875D01*
X416250Y260500D01*
D02*
G37*
G36*
X393885Y266500D02*
X393885Y260500D01*
X360635Y260500D01*
X360635Y266500D01*
X393885Y266500D01*
D02*
G37*
D11*
X344325Y228822D02*
X357752Y242250D01*
X270951Y228822D02*
X344325D01*
X337576Y233322D02*
X346251Y241998D01*
X272815Y233322D02*
X337576D01*
X195250Y236800D02*
X269338D01*
X179035Y253015D02*
Y253015D01*
Y253015D02*
X195250Y236800D01*
X159050Y273000D02*
X179035Y253015D01*
X235250Y273000D02*
X254500Y253750D01*
X291500D01*
X209850Y273000D02*
X233600Y249250D01*
X280750D01*
X184450Y273000D02*
X214450Y243000D01*
X271750D01*
X222650Y309000D02*
X235250Y296400D01*
Y273000D02*
Y296400D01*
X197250Y309000D02*
X209850Y296400D01*
Y273000D02*
Y296400D01*
X171850Y309000D02*
X184450Y296400D01*
Y273000D02*
Y296400D01*
X108250Y271500D02*
X152000Y227750D01*
X108250Y271500D02*
Y296400D01*
X133650Y273000D02*
X174375Y232275D01*
X249002D01*
X302750Y242500D02*
Y242500D01*
X291500Y253750D02*
X302750Y242500D01*
X280750Y249250D02*
X287250Y242750D01*
X269338Y236800D02*
X272815Y233322D01*
X249027Y232300D02*
X267474D01*
X249002Y232275D02*
X249027Y232300D01*
X267474D02*
X270951Y228822D01*
X159050Y273000D02*
Y296400D01*
X146450Y309000D02*
X159050Y296400D01*
X121050Y309000D02*
X133650Y296400D01*
Y273000D02*
Y296400D01*
X95650Y309000D02*
X108250Y296400D01*
D52*
X453287Y161257D02*
D03*
Y103257D02*
D03*
X26000Y102750D02*
D03*
Y160750D02*
D03*
D57*
X256500Y26000D02*
D03*
X198500D02*
D03*
D69*
X258250Y217272D02*
X386250D01*
D71*
X248050Y283500D02*
X266250D01*
X95650Y262900D02*
Y283500D01*
X70250Y309000D02*
Y329600D01*
X49650Y309000D02*
X70250D01*
D72*
X377260Y263500D02*
Y269869D01*
X363635Y263500D02*
Y269869D01*
X357266Y263500D02*
X363635D01*
X330016Y263500D02*
X336385D01*
X336385Y263500D02*
Y269869D01*
X350010Y263500D02*
Y269869D01*
Y263500D02*
X356379D01*
X338756Y369250D02*
X345125D01*
X345125Y362881D02*
Y369250D01*
X358750Y362881D02*
Y369250D01*
X372375Y362881D02*
Y369250D01*
Y369250D02*
X386000D01*
X386000Y362881D02*
Y369250D01*
X406881Y355625D02*
X413250D01*
X406881Y342000D02*
X413250D01*
X406881Y328375D02*
X413250D01*
X413250Y314750D02*
Y328375D01*
X406881Y314750D02*
X413250D01*
X406881Y301125D02*
X413250D01*
X277000Y335631D02*
Y342000D01*
Y342000D02*
X283369D01*
X277000Y355625D02*
X283369D01*
X317875Y369250D02*
X324244D01*
X317875Y362881D02*
Y369250D01*
X304250Y362881D02*
Y369250D01*
X290625Y362881D02*
Y369250D01*
X267788Y342000D02*
X277000D01*
X290635Y263500D02*
Y277125D01*
X304260Y263500D02*
Y270500D01*
X270010Y277125D02*
X277010D01*
X270010Y290750D02*
X277010D01*
X277010Y270125D02*
Y277125D01*
X277010Y290750D02*
X284010D01*
X277010Y263500D02*
Y270500D01*
X270010Y263500D02*
X277010D01*
X304260Y263500D02*
X311260D01*
X336385Y253500D02*
Y263500D01*
X390885Y256500D02*
Y263500D01*
X377260Y256500D02*
Y263500D01*
X363635Y256500D02*
Y263500D01*
X350010Y256500D02*
Y263500D01*
X413250Y314750D02*
X420250D01*
X413250Y273875D02*
X420250D01*
X413250Y342000D02*
X420250D01*
X413250Y328375D02*
X420250D01*
X413250Y301125D02*
X420250D01*
X413250Y287500D02*
X420250D01*
X413260Y256500D02*
Y263500D01*
X413250Y355625D02*
X420250D01*
X267788Y355625D02*
X277000D01*
X413250Y369250D02*
X422462D01*
X267788D02*
X277000D01*
X413250Y369250D02*
Y375000D01*
X413250Y355625D02*
Y369250D01*
X399625D02*
Y375764D01*
X386000Y369250D02*
Y375424D01*
X358750Y369250D02*
Y375676D01*
X372375Y369250D02*
Y375250D01*
X345125Y369250D02*
Y375676D01*
X331500Y369250D02*
Y375676D01*
X317875Y369250D02*
Y375250D01*
X304250Y369250D02*
Y375619D01*
X277000Y369250D02*
Y375114D01*
X290625Y369250D02*
Y375619D01*
X399625Y362250D02*
Y369250D01*
X325074Y369250D02*
X331500D01*
X277000Y369250D02*
X290625D01*
D75*
X334000Y326750D02*
X383260D01*
X392750Y284750D02*
Y317260D01*
X383260Y326750D02*
X392750Y317260D01*
D78*
X248050Y283500D02*
D03*
X222650D02*
D03*
X197250D02*
D03*
X171850D02*
D03*
X95650D02*
D03*
X70250D02*
D03*
X121050D02*
D03*
X146450D02*
D03*
X171850Y309000D02*
D03*
X197250D02*
D03*
X248050D02*
D03*
X222650D02*
D03*
X146450D02*
D03*
X121050D02*
D03*
X95650D02*
D03*
X70250D02*
D03*
D79*
X454250Y238975D02*
D03*
X454250Y355750D02*
D03*
X25000Y238975D02*
D03*
Y25000D02*
D03*
X25000Y355750D02*
D03*
X454250Y25000D02*
D03*
D80*
X66500Y96498D02*
D03*
Y167500D02*
D03*
X62500Y155000D02*
D03*
X81000Y96498D02*
D03*
Y167500D02*
D03*
X75000Y155000D02*
D03*
X95500Y96498D02*
D03*
Y167500D02*
D03*
X100000Y155000D02*
D03*
X62500Y108998D02*
D03*
X75000D02*
D03*
X100000D02*
D03*
X52000Y96498D02*
D03*
Y155000D02*
D03*
Y167500D02*
D03*
X112500Y96498D02*
D03*
X87500Y155000D02*
D03*
X52000Y108998D02*
D03*
X87500D02*
D03*
X112500D02*
D03*
X141498Y86000D02*
D03*
X166498D02*
D03*
X178998D02*
D03*
X153998D02*
D03*
X128997D02*
D03*
X191498D02*
D03*
X203998Y61000D02*
D03*
Y73500D02*
D03*
Y86000D02*
D03*
Y98500D02*
D03*
Y52000D02*
D03*
Y111000D02*
D03*
X191498Y52000D02*
D03*
X207500Y165000D02*
D03*
X245000D02*
D03*
X207500Y152500D02*
D03*
X220000D02*
D03*
X245000D02*
D03*
X195000Y165000D02*
D03*
Y152500D02*
D03*
X232500D02*
D03*
X263502Y86000D02*
D03*
Y52000D02*
D03*
X251002Y61000D02*
D03*
Y73500D02*
D03*
Y86000D02*
D03*
Y98500D02*
D03*
Y52000D02*
D03*
Y111000D02*
D03*
X286609Y79327D02*
D03*
X299109D02*
D03*
X324109D02*
D03*
X274109D02*
D03*
X311609D02*
D03*
X336609D02*
D03*
X345448Y88166D02*
D03*
X369000Y97005D02*
D03*
X383500D02*
D03*
X412500D02*
D03*
X427000D02*
D03*
X366787Y109505D02*
D03*
X379287D02*
D03*
X391787D02*
D03*
X404287D02*
D03*
X427000D02*
D03*
X398000Y97005D02*
D03*
X354287D02*
D03*
Y109505D02*
D03*
X416787D02*
D03*
X369000Y168007D02*
D03*
X366787Y155507D02*
D03*
X383500Y168007D02*
D03*
X379287Y155507D02*
D03*
X391787D02*
D03*
X412500Y168007D02*
D03*
X404287Y155507D02*
D03*
X427000D02*
D03*
Y168007D02*
D03*
X354500D02*
D03*
X398000D02*
D03*
X354287Y155507D02*
D03*
X416787D02*
D03*
X137750Y179750D02*
D03*
Y199000D02*
D03*
X121500Y215250D02*
D03*
X335250Y205500D02*
D03*
X386250Y217250D02*
D03*
X318250Y242250D02*
D03*
X357752Y242250D02*
D03*
X262250Y212750D02*
D03*
X253500D02*
D03*
Y221500D02*
D03*
X262250D02*
D03*
X290625Y369250D02*
D03*
X277000Y355625D02*
D03*
X454287Y155507D02*
D03*
Y168007D02*
D03*
X466787Y109505D02*
D03*
Y168007D02*
D03*
X441787Y155507D02*
D03*
X466787Y97005D02*
D03*
X454287D02*
D03*
X466787Y155507D02*
D03*
X441787Y97005D02*
D03*
X441787Y109505D02*
D03*
X441787Y168007D02*
D03*
X454287Y109505D02*
D03*
X317875Y369250D02*
D03*
X331500Y355625D02*
D03*
X395260Y342000D02*
D03*
X369250Y242000D02*
D03*
X143500Y217250D02*
D03*
X169750Y212500D02*
D03*
X174500Y192000D02*
D03*
X201750Y219250D02*
D03*
X159000Y235750D02*
D03*
X134500Y229250D02*
D03*
X271750Y243000D02*
D03*
X287250Y242750D02*
D03*
X302750Y242500D02*
D03*
X234000Y261750D02*
D03*
X209000D02*
D03*
X184000D02*
D03*
X159000D02*
D03*
X134000D02*
D03*
X290635Y290875D02*
D03*
X304260Y291000D02*
D03*
Y277250D02*
D03*
X290635Y277250D02*
D03*
X390885Y253500D02*
D03*
X377260Y253500D02*
D03*
X363635Y253500D02*
D03*
X350010Y253500D02*
D03*
X346251Y241998D02*
D03*
X277010Y277125D02*
D03*
X277010Y290750D02*
D03*
X304260Y263500D02*
D03*
X290635Y263500D02*
D03*
X277010Y263500D02*
D03*
X277000Y342000D02*
D03*
X277000Y369250D02*
D03*
X404010Y359500D02*
D03*
X395260D02*
D03*
X404010Y350750D02*
D03*
X395260D02*
D03*
X404010Y342000D02*
D03*
X413260Y263500D02*
D03*
X413250Y273875D02*
D03*
X386000Y342000D02*
D03*
X386000Y355625D02*
D03*
X402747Y284754D02*
D03*
X392754Y274753D02*
D03*
X413250Y301125D02*
D03*
Y287500D02*
D03*
X413250Y314750D02*
D03*
X413250Y342000D02*
D03*
Y328375D02*
D03*
X413250Y355625D02*
D03*
X413250Y369250D02*
D03*
X386000Y369250D02*
D03*
X399625D02*
D03*
X363635Y263500D02*
D03*
X377260Y263500D02*
D03*
X390885Y263500D02*
D03*
X336385Y263500D02*
D03*
X350010Y263500D02*
D03*
X372375Y369250D02*
D03*
X358750Y369250D02*
D03*
X345125Y369250D02*
D03*
X25000Y96498D02*
D03*
X37500Y155000D02*
D03*
X12500Y167500D02*
D03*
X37500D02*
D03*
X12500Y96498D02*
D03*
X25000Y108998D02*
D03*
X12500Y155000D02*
D03*
X25000Y167500D02*
D03*
X37500Y96498D02*
D03*
X37500Y108998D02*
D03*
X25000Y155000D02*
D03*
X12500Y108998D02*
D03*
X203998Y36000D02*
D03*
X191498Y23500D02*
D03*
X203998Y11000D02*
D03*
Y23500D02*
D03*
X191498Y36000D02*
D03*
Y11000D02*
D03*
X263502D02*
D03*
Y36000D02*
D03*
X251002Y23500D02*
D03*
Y11000D02*
D03*
X263502Y23500D02*
D03*
X251002Y36000D02*
D03*
X331500Y369250D02*
D03*
X331500Y342000D02*
D03*
X343750Y293750D02*
D03*
X304250Y369250D02*
D03*
X334000Y326750D02*
D03*
X392750Y284750D02*
D03*
D81*
X294550Y125494D02*
D03*
X294550Y140494D02*
D03*
X309550D02*
D03*
X324550D02*
D03*
Y125494D02*
D03*
X294550Y110494D02*
D03*
X309550D02*
D03*
X324550D02*
D03*
X317050Y117994D02*
D03*
X302050D02*
D03*
X317050Y132994D02*
D03*
X302050D02*
D03*
X309550Y125494D02*
D03*
X157787Y134487D02*
D03*
X150287Y141987D02*
D03*
X165287D02*
D03*
X150287Y126987D02*
D03*
X165287D02*
D03*
X302500Y200625D02*
D03*
X177750Y107250D02*
D03*
X267562Y192506D02*
D03*
X277561Y172758D02*
D03*
Y182758D02*
D03*
X277556Y162765D02*
D03*
X302500Y190625D02*
D03*
Y180625D02*
D03*
X362750Y316750D02*
D03*
X354750D02*
D03*
X362750Y308750D02*
D03*
X354750Y308750D02*
D03*
D82*
X269077Y224297D02*
X351547D01*
X369250Y242000D01*
X152000Y227750D02*
X250876D01*
X250901Y227775D01*
X265599D01*
X269077Y224297D01*
M02*
